<?xml version="1.0" encoding="iso-8859-1"?>
<svg version="1.1" id="Capa_1" xmlns="http://www.w3.org/2000/svg" xmlns:xlink="http://www.w3.org/1999/xlink" x="0px" y="0px"
	 viewBox="0 0 512 512" style="enable-background:new 0 0 512 512;" xml:space="preserve">
<circle style="fill:#F8BD9A;" cx="352" cy="160" r="152"/>
<circle style="fill:#D2C3E2;" cx="72" cy="352" r="64"/>
<g>
	<rect x="456" y="232" style="fill:#403E3E;" width="16" height="216"/>
	<path style="fill:#403E3E;" d="M56,448H40V192c0-6.408,2.496-12.44,7.032-16.968C51.56,170.496,57.592,168,64,168h232v16H64
		c-2.136,0-4.144,0.832-5.656,2.344S56,189.864,56,192V448z"/>
	<path style="fill:#403E3E;" d="M472,504H40c-10.68,0-20.728-4.168-28.28-11.72C4.16,484.72,0,474.68,0,464v-24h195.312l16,16
		h89.376l16-16H512v24c0,10.68-4.168,20.728-11.72,28.28C492.736,499.832,482.688,504,472,504z M16,456v8
		c0,6.408,2.496,12.432,7.032,16.968C27.568,485.504,33.592,488,40,488h432c6.416,0,12.44-2.496,16.96-7.032
		c4.544-4.528,7.04-10.56,7.04-16.968v-8H323.312l-16,16H204.688l-16-16H16z"/>
	<path style="fill:#403E3E;" d="M296,424H72V200h224V424z M88,408h192V216H88V408z"/>
	<path style="fill:#403E3E;" d="M184,392c-34.832,0-72-1.848-72-24h16c0,0.08,0.64,8,56,8s56-7.92,56-8h16
		C256,390.152,218.832,392,184,392z"/>
	<polygon style="fill:#403E3E;" points="256,368 240,368 240,348.528 202.344,325.656 194.344,317.656 205.656,306.344
		212.96,313.648 256,339.472 	"/>
	<polygon style="fill:#403E3E;" points="128,368 112,368 112,339.472 155.04,313.648 162.344,306.344 173.656,317.656
		164.12,326.856 128,348.528 	"/>
	<path style="fill:#403E3E;" d="M184,320c-22.056,0-40-17.944-40-40v-8c0-22.056,17.944-40,40-40s40,17.944,40,40v8
		C224,302.056,206.056,320,184,320z M184,248c-13.232,0-24,10.768-24,24v8c0,13.232,10.768,24,24,24s24-10.768,24-24v-8
		C208,258.768,197.232,248,184,248z"/>
	<rect x="336" y="384" style="fill:#403E3E;" width="16" height="16"/>
	<rect x="368" y="384" style="fill:#403E3E;" width="16" height="16"/>
	<rect x="400" y="384" style="fill:#403E3E;" width="16" height="16"/>
	<path style="fill:#403E3E;" d="M320,248c-1.032,0-2.072-0.2-3.064-0.608c-2.992-1.24-4.936-4.16-4.936-7.392V80
		c0-4.416,3.576-8,8-8h184c4.424,0,8,3.584,8,8v128c0,4.416-3.576,8-8,8H355.312l-29.656,29.656C324.128,247.184,322.08,248,320,248
		z M328,88v132.688l18.344-18.344C347.84,200.84,349.872,200,352,200h144V88H328z"/>
	<rect x="352" y="104" style="fill:#403E3E;" width="48" height="16"/>
	<rect x="416" y="104" style="fill:#403E3E;" width="56" height="16"/>
	<rect x="352" y="136" style="fill:#403E3E;" width="88" height="16"/>
	<rect x="424" y="168" style="fill:#403E3E;" width="32" height="16"/>
	<rect x="352" y="168" style="fill:#403E3E;" width="56" height="16"/>
	<path style="fill:#403E3E;" d="M8,184c-1.032,0-2.072-0.2-3.064-0.608C1.952,182.152,0,179.232,0,176V16c0-4.416,3.584-8,8-8h240
		c4.416,0,8,3.584,8,8v128c0,4.416-3.584,8-8,8H43.312l-29.656,29.656C12.128,183.184,10.08,184,8,184z M16,24v132.688
		l18.344-18.344C35.84,136.84,37.88,136,40,136h200V24H16z"/>
	<rect x="40" y="40" style="fill:#403E3E;" width="128" height="16"/>
	<rect x="184" y="40" style="fill:#403E3E;" width="40" height="16"/>
	<rect x="40" y="72" style="fill:#403E3E;" width="184" height="16"/>
	<rect x="40" y="104" style="fill:#403E3E;" width="56" height="16"/>
	<rect x="112" y="104" style="fill:#403E3E;" width="32" height="16"/>
</g>
</svg>
