<?xml version="1.0" encoding="iso-8859-1"?>
<svg version="1.1" id="Capa_1" xmlns="http://www.w3.org/2000/svg" xmlns:xlink="http://www.w3.org/1999/xlink" x="0px" y="0px"
	 viewBox="0 0 512 512" style="enable-background:new 0 0 512 512;" xml:space="preserve">
<circle style="fill:#D2C3E2;" cx="256" cy="268.387" r="156.903"/>
<circle style="fill:#F8BD9A;" cx="82.581" cy="103.226" r="66.065"/>
<g>
	<path style="fill:#403E3E;" d="M412.903,161.032h-16.516v-21.578C360.514,100.641,309.529,78.452,256,78.452
		s-104.506,22.189-140.387,61.002v21.578H99.097v-27.929l2.098-2.354C140.305,87.023,196.724,61.935,256,61.935
		c59.285,0,115.704,25.088,154.797,68.814l2.106,2.354V161.032z"/>
	<path style="fill:#403E3E;" d="M256,474.839c-59.276,0-115.695-25.08-154.806-68.814l-2.098-2.354v-27.929h16.516v21.578
		c35.881,38.805,86.858,61.002,140.387,61.002s104.514-22.198,140.387-61.002v-21.578h16.516v27.929l-2.106,2.345
		C371.704,449.759,315.285,474.839,256,474.839z"/>
	<path style="fill:#403E3E;" d="M222.968,359.226H57.806C25.93,359.226,0,333.287,0,301.419v-66.065
		c0-31.876,25.93-57.806,57.806-57.806H214.71v16.516H57.806c-22.767,0-41.29,18.523-41.29,41.29v66.065
		c0,22.767,18.523,41.29,41.29,41.29h165.161c22.767,0,41.29-18.523,41.29-41.29v-16.516h16.516v16.516
		C280.774,333.287,254.844,359.226,222.968,359.226z"/>
	<path style="fill:#403E3E;" d="M222.968,326.194H57.806c-13.659,0-24.774-11.115-24.774-24.774v-8.258h16.516v8.258
		c0,4.558,3.708,8.258,8.258,8.258h165.161c4.55,0,8.258-3.7,8.258-8.258v-16.516h16.516v16.516
		C247.742,315.078,236.627,326.194,222.968,326.194z"/>
	<path style="fill:#403E3E;" d="M49.548,243.613H33.032v-8.258c0-13.659,11.115-24.774,24.774-24.774H214.71v16.516H57.806
		c-4.55,0-8.258,3.708-8.258,8.258V243.613z"/>
	<rect x="33.032" y="260.129" style="fill:#403E3E;" width="16.516" height="16.516"/>
	<path style="fill:#403E3E;" d="M454.194,359.226H297.29V342.71h156.903c22.767,0,41.29-18.523,41.29-41.29v-66.065
		c0-22.767-18.523-41.29-41.29-41.29H289.032c-22.767,0-41.29,18.523-41.29,41.29v16.516h-16.516v-16.516
		c0-31.876,25.93-57.806,57.806-57.806h165.161c31.868,0,57.806,25.93,57.806,57.806v66.065
		C512,333.287,486.061,359.226,454.194,359.226z"/>
	<path style="fill:#403E3E;" d="M454.194,326.194H297.29v-16.516h156.903c4.558,0,8.258-3.7,8.258-8.258v-8.258h16.516v8.258
		C478.968,315.078,467.852,326.194,454.194,326.194z"/>
	<path style="fill:#403E3E;" d="M280.774,251.871h-16.516v-16.516c0-13.659,11.115-24.774,24.774-24.774h165.161
		c13.659,0,24.774,11.115,24.774,24.774v8.258h-16.516v-8.258c0-4.55-3.7-8.258-8.258-8.258H289.032
		c-4.558,0-8.258,3.708-8.258,8.258V251.871z"/>
	<rect x="462.452" y="260.129" style="fill:#403E3E;" width="16.516" height="16.516"/>
	<rect x="165.161" y="243.613" style="fill:#403E3E;" width="181.677" height="16.516"/>
	<rect x="165.161" y="276.645" style="fill:#403E3E;" width="181.677" height="16.516"/>
	<rect x="214.71" y="144.516" style="fill:#403E3E;" width="16.516" height="16.516"/>
	<rect x="247.742" y="144.516" style="fill:#403E3E;" width="16.516" height="16.516"/>
	<rect x="280.774" y="144.516" style="fill:#403E3E;" width="16.516" height="16.516"/>
	<rect x="214.71" y="375.742" style="fill:#403E3E;" width="16.516" height="16.516"/>
	<rect x="247.742" y="375.742" style="fill:#403E3E;" width="16.516" height="16.516"/>
	<rect x="280.774" y="375.742" style="fill:#403E3E;" width="16.516" height="16.516"/>
</g>
</svg>
