<?xml version="1.0" encoding="iso-8859-1"?>
<svg xmlns="http://www.w3.org/2000/svg" xmlns:xlink="http://www.w3.org/1999/xlink" version="1.1" id="Layer_1" x="0px" y="0px" viewBox="0 0 496 496" style="enable-background:new 0 0 496 496;" xml:space="preserve">
<circle style="fill:#D2C3E2;" cx="184" cy="164" r="152"/>
<circle style="fill:#F8BD9A;" cx="360" cy="420" r="64"/>
<g>
	<polygon style="fill:#403E3E;" points="496,452 0,452 0,92 16,92 16,436 480,436 480,92 496,92  "/>
	<polygon style="fill:#403E3E;" points="496,100 456,100 456,84 480,84 480,36 16,36 16,84 376,84 376,100 0,100 0,20 496,20  "/>
	<rect x="32" y="52" style="fill:#403E3E;" width="16" height="16"/>
	<rect x="64" y="52" style="fill:#403E3E;" width="16" height="16"/>
	<rect x="96" y="52" style="fill:#403E3E;" width="16" height="16"/>
	<rect x="128" y="52" style="fill:#403E3E;" width="248" height="16"/>
	<path style="fill:#403E3E;" d="M224,260H32V116h192V260z M48,244h160V132H48V244z"/>
	<polygon style="fill:#403E3E;" points="464,280 416,260.8 368,280 368,28 384,28 384,256 416,243.2 448,256 448,28 464,28  "/>
	<rect x="408" y="84" style="fill:#403E3E;" width="16" height="16"/>
	<rect x="408" y="116" style="fill:#403E3E;" width="16" height="16"/>
	<rect x="408" y="148" style="fill:#403E3E;" width="16" height="16"/>
	<rect x="240" y="244" style="fill:#403E3E;" width="96" height="16"/>
	<rect x="240" y="212" style="fill:#403E3E;" width="96" height="16"/>
	<rect x="240" y="180" style="fill:#403E3E;" width="96" height="16"/>
	<rect x="240" y="148" style="fill:#403E3E;" width="96" height="16"/>
	<rect x="240" y="116" style="fill:#403E3E;" width="96" height="16"/>
	<rect x="32" y="276" style="fill:#403E3E;" width="304" height="16"/>
	<rect x="32" y="308" style="fill:#403E3E;" width="304" height="16"/>
	<rect x="32" y="340" style="fill:#403E3E;" width="304" height="16"/>
	<rect x="32" y="372" style="fill:#403E3E;" width="304" height="16"/>
	<rect x="32" y="404" style="fill:#403E3E;" width="128" height="16"/>
	<path style="fill:#403E3E;" d="M464,388h-96v-96h96V388z M384,372h64v-64h-64V372z"/>
	<rect x="368" y="404" style="fill:#403E3E;" width="96" height="16"/>
	<rect x="408" y="332" style="fill:#403E3E;" width="16" height="16"/>
</g>
</svg>
