<?xml version="1.0" encoding="iso-8859-1"?>
<svg version="1.1" id="Capa_1" xmlns="http://www.w3.org/2000/svg" xmlns:xlink="http://www.w3.org/1999/xlink" x="0px" y="0px"
	 viewBox="0 0 512 512" style="enable-background:new 0 0 512 512;" xml:space="preserve">
<circle style="fill:#F8BD9A;" cx="344" cy="264" r="152"/>
<circle style="fill:#D2C3E2;" cx="80" cy="424" r="64"/>
<g>
	<polygon style="fill:#403E3E;" points="464,200 432,200 432,184 448,184 448,152 432,152 432,136 464,136 	"/>
	<polygon style="fill:#403E3E;" points="464,280 432,280 432,264 448,264 448,232 432,232 432,216 464,216 	"/>
	<polygon style="fill:#403E3E;" points="464,120 432,120 432,104 448,104 448,72 432,72 432,56 464,56 	"/>
	<path style="fill:#403E3E;" d="M48,480H32V32c0-8.544,3.328-16.584,9.376-22.624C47.416,3.328,55.456,0,64,0h352v464H64
		c-4.272,0-8.288,1.664-11.312,4.688S48,475.728,48,480z M64,16c-4.272,0-8.288,1.664-11.312,4.688S48,27.728,48,32v420.272
		C52.816,449.488,58.296,448,64,448h336V16H64z"/>
	<rect x="96" y="8" style="fill:#403E3E;" width="16" height="448"/>
	<rect x="64" y="56" style="fill:#403E3E;" width="16" height="352"/>
	<path style="fill:#403E3E;" d="M448,512H64c-8.544,0-16.584-3.328-22.624-9.376C35.328,496.576,32,488.544,32,480h16
		c0,4.272,1.664,8.288,4.688,11.312S59.728,496,64,496h368V296h16V512z"/>
	<rect x="216" y="392" style="fill:#403E3E;" width="16" height="16"/>
	<rect x="248" y="392" style="fill:#403E3E;" width="16" height="16"/>
	<rect x="280" y="392" style="fill:#403E3E;" width="16" height="16"/>
	<path style="fill:#403E3E;" d="M256,360c-70.576,0-128-57.424-128-128s57.424-128,128-128s128,57.424,128,128S326.576,360,256,360z
		 M256,120c-61.76,0-112,50.24-112,112s50.24,112,112,112s112-50.24,112-112S317.76,120,256,120z"/>
	<path style="fill:#403E3E;" d="M256,304c-34.832,0-72-1.848-72-24h16c0,0.08,0.64,8,56,8s56-7.92,56-8h16
		C328,302.152,290.832,304,256,304z"/>
	<polygon style="fill:#403E3E;" points="328,280 312,280 312,260.528 274.344,237.656 266.344,229.656 277.656,218.344
		284.96,225.648 328,251.472 	"/>
	<polygon style="fill:#403E3E;" points="200,280 184,280 184,251.472 227.04,225.648 234.344,218.344 245.656,229.656
		236.12,238.856 200,260.528 	"/>
	<path style="fill:#403E3E;" d="M256,232c-22.056,0-40-17.944-40-40v-8c0-22.056,17.944-40,40-40s40,17.944,40,40v8
		C296,214.056,278.056,232,256,232z M256,160c-13.232,0-24,10.768-24,24v8c0,13.232,10.768,24,24,24s24-10.768,24-24v-8
		C280,170.768,269.232,160,256,160z"/>
</g>
</svg>
