<svg width="120" height="120" xmlns="http://www.w3.org/2000/svg">
  <g fill="none" fill-rule="evenodd">
    <path d="M99.5 32c.7 0 1.2.5 1.2 1.1v39c0 .7-.5 1.2-1.2 1.2h-9l4.7 9.4a1.2 1.2 0 1 1-2.2 1l-5.1-10.4h-9.2a1.2 1.2 0 0 1 0-2.4h19.6V34.3H72a1.2 1.2 0 0 1 0-2.4h27.4zm-6.9 11h-9a1.2 1.2 0 0 1 0-2.4h9a1.2 1.2 0 0 1 0 2.4zm-24.1 7.2a1.2 1.2 0 1 1 0-2.4h24a1.2 1.2 0 0 1 0 2.4h-24zm25 6c0 .6-.5 1.2-1.1 1.2H65.6a1.2 1.2 0 0 1 0-2.4h26.8c.6 0 1.2.5 1.2 1.2zm-6.4 7.2c0 .6-.6 1.2-1.2 1.2H69.2a1.2 1.2 0 1 1 0-2.4h16.7c.6 0 1.2.5 1.2 1.2z" fill="#34495E"/>
    <path d="M27 74.8c1.6-2 4-2.3 6.7-2.7l.8-.1-2.2 8.1a1.2 1.2 0 0 0 1.6 1.5l2.3-.8 4.5 12.8H21.4c.2-7.6 2.3-14.4 5.7-18.8zm9.9-35c4-.4 7.3-1.6 10-3.7 4.6 1.6 9.6 2.8 15.2 3.6.2.7.3 1.6.3 2.6 0 5.8-2.2 13.8-6.2 17.8a9.2 9.2 0 0 1-6.7 2.9c-9.6-.1-12.9-14.3-12.9-20.7 0-1 .1-1.8.3-2.6zm.3-8.5c1.9-3 6.6-4.9 12.3-4.9 5.7 0 10.4 1.9 12.3 4.9 1.1 1.7 1.3 3.7.5 6-8-1.2-15.1-3.2-21-6a1.2 1.2 0 0 0-1 2.1l3.8 1.7c-2 1.2-4.4 2-7.4 2.2-.8-2.3-.6-4.3.5-6zm12.3 54l2.6 8.3H47l2.6-8.4zm-8.2-16V69l6.4 4-2.3 2.6-5.7-5.3c.6-.3 1-.7 1.6-1.2zm12.3 6.4l-2.3-2.6 6.3-4 .1.1c.5.5 1 .9 1.6 1.2l-5.7 5.3zm-4 3.4l-1.8-2.4 1.7-2 1.7 2-1.7 2.4zm-.1-13.7h.1c2.3 0 4.4-.7 6.3-2 0 1.3.1 2.5.5 3.6l-6.9 4.4-6.9-4.4c.4-1 .5-2.3.5-3.6 1.8 1.2 4 2 6.4 2zm-6.3 28.2L38 78.8a1.2 1.2 0 0 0-1.5-.7l-1.3.4 2-7 7.5 6.9c.2.2.5.3.8.3.3 0 .5 0 .6-.2l2 3-3.8 12h-1zm11.5 0l-3.9-12.2 2-2.9.6.2c.4 0 .7-.1.9-.3l7.4-7h.1l2 7.1-1.3-.4a1.2 1.2 0 0 0-1.6.7l-5.1 14.8h-1.1zm17.2-18.8a32.7 32.7 0 0 1 5.6 18.8H58.3l4.5-12.8 2.3.8a1.2 1.2 0 0 0 1.6-1.5L64.5 72h.8c2.7.5 5 .8 6.6 2.8zm2-1.5c-2.2-2.8-5.4-3.2-8.3-3.6-2.3-.3-4.6-.7-6.2-2.2-1.2-1.1-1.2-3.2-1-6.3a30.7 30.7 0 0 0 6.4-19c0-1.3-.2-2.5-.5-3.6 1.7-4 .7-6.9-.5-8.7-2.4-3.7-7.7-5.9-14.3-5.9-6.6 0-12 2.2-14.4 6-1.1 1.7-2 4.6-.4 8.6-.3 1.1-.5 2.3-.5 3.7a31 31 0 0 0 6.3 18.9c.2 3 .3 5.2-1 6.3-1.5 1.5-3.8 1.9-6.2 2.2-2.8.4-6 .8-8.2 3.6-3.9 5-6.1 13-6.1 21.5 0 .7.5 1.2 1.2 1.2H78.8c.6 0 1.2-.5 1.2-1.2 0-8.6-2.2-16.4-6.1-21.5z" fill="#8ACE12"/>
  </g>
</svg>
